C:\Users\felipesantos\Documents\BLXNew\core\src\main\java\com\brq\blx\persistence\CategoriaDao.java
C:\Users\felipesantos\Documents\BLXNew\core\src\main\java\com\brq\blx\persistence\TipoUsuarioDao.java
C:\Users\felipesantos\Documents\BLXNew\core\src\main\java\com\brq\blx\persistence\EnderecoDao.java
C:\Users\felipesantos\Documents\BLXNew\core\src\main\java\com\brq\blx\persistence\AnuncioDao.java
C:\Users\felipesantos\Documents\BLXNew\core\src\main\java\com\brq\blx\entity\Categoria.java
C:\Users\felipesantos\Documents\BLXNew\core\src\main\java\com\brq\blx\entity\Usuario.java
C:\Users\felipesantos\Documents\BLXNew\core\src\main\java\com\brq\blx\infraestrutura\Repository.java
C:\Users\felipesantos\Documents\BLXNew\core\src\main\java\com\brq\blx\entity\TipoUsuario.java
C:\Users\felipesantos\Documents\BLXNew\core\src\main\java\com\brq\blx\persistence\ContatoDao.java
C:\Users\felipesantos\Documents\BLXNew\core\src\main\java\com\brq\blx\entity\Anuncio.java
C:\Users\felipesantos\Documents\BLXNew\core\src\main\java\com\brq\blx\entity\Avaliacao.java
C:\Users\felipesantos\Documents\BLXNew\core\src\main\java\com\brq\blx\persistence\AvaliacaoDao.java
C:\Users\felipesantos\Documents\BLXNew\core\src\main\java\com\brq\blx\entity\Endereco.java
C:\Users\felipesantos\Documents\BLXNew\core\src\main\java\com\brq\blx\infraestrutura\AbstractRepository.java
C:\Users\felipesantos\Documents\BLXNew\core\src\main\java\com\brq\blx\persistence\UsuarioDao.java
C:\Users\felipesantos\Documents\BLXNew\core\src\main\java\com\brq\blx\persistence\ImagemDao.java
C:\Users\felipesantos\Documents\BLXNew\core\src\main\java\com\brq\blx\entity\Contato.java
C:\Users\felipesantos\Documents\BLXNew\core\src\main\java\com\brq\blx\entity\Imagem.java
C:\Users\felipesantos\Documents\BLXNew\core\src\main\java\com\brq\blx\persistence\AlteracaoDao.java
C:\Users\felipesantos\Documents\BLXNew\core\src\main\java\com\brq\blx\entity\Alteracao.java
